"","word","freq"
"1","kenneth",42
"2","reform",27
"3","party",23
"4","source",19
"5","cms",15
"6","jeyaretnams",15
"7","stack",15
"8","partys",7
"9","neck",6
"10","zhu",6
"11","rally",5
"12","rps",5
"13","andy",4
"14","chairman",4
"15","deposit",4
"16","fight",4
"17","residents",4
"18","rprally",4
"19","anyway",3
"20","attacking",3
"21","hes",3
"22","oursgconv",3
"23","race",3
"24","sdas",3
"25","sgpol",3
"26","via",3
"27","057",2
"28","29415",2
"29","437",2
"30","4371",2
"31","545",2
"32","5452",2
"33","apple",2
"34","ballot",2
"35","based",2
"36","blackberry",2
"37","breaking",2
"38","bring",2
"39","cant",2
"40","carved",2
"41","colour",2
"42","combined",2
"43","confident",2
"44","count",2
"45","crew",2
"46","danger",2
"47","dash",2
"48","depost",2
"49","everybodys",2
"50","fights",2
"51","final",2
"52","forest",2
"53","fourway",2
"54","introduced",2
"55","issues",2
"56","ken",2
"57","lion",2
"58","lips",2
"59","lol",2
"60","looks",2
"61","lose",2
"62","losing",2
"63","media",2
"64","mkts",2
"65","motley",2
"66","nokia",2
"67","official",2
"68","paper",2
"69","papwp",2
"70","parliament",2
"71","plan",2
"72","portrayals",2
"73","protests",2
"74","question",2
"75","rivervale",2
"76","run",2
"77","running",2
"78","saying",2
"79","secretarygeneral",2
"80","serpent",2
"81","sources",2
"82","stage",2
"83","team",2
"84","thats",2
"85","time",2
"86","twohorse",2
"87","unreliable",2
"88","valid",2
"89","valley",2
"90","wins",2
"91","wont",2
"92","yamahmee",2
"93","183c",1
"94","30000",1
"95","945",1
"96","abt",1
"97","action",1
"98","acts",1
"99","allegedly",1
"100","alrdy",1
"101","amenities",1
"102","arrived",1
"103","attract",1
"104","baby",1
"105","blame",1
"106","blk",1
"107","byelections",1
"108","call",1
"109","calls",1
"110","cameras",1
"111","campaigning",1
"112","candidate",1
"113","cause",1
"114","center",1
"115","centre",1
"116","chance",1
"117","chief",1
"118","childcare",1
"119","childish",1
"120","clerk",1
"121","close",1
"122","closely",1
"123","considering",1
"124","contest",1
"125","contesting",1
"126","cost",1
"127","counting",1
"128","cres",1
"129","demand",1
"130","democracy",1
"131","deposits",1
"132","describes",1
"133","difference",1
"134","disappointment",1
"135","donated",1
"136","dont",1
"137","drink",1
"138","dropped",1
"139","earlier",1
"140","election",1
"141","expects",1
"142","fathers",1
"143","favor",1
"144","feeling",1
"145","fiveyear",1
"146","flip",1
"147","flops",1
"148","follow",1
"149","food",1
"150","footsteps",1
"151","found",1
"152","frequency",1
"153","fuck",1
"154","garnering",1
"155","glad",1
"156","gonna",1
"157","government",1
"158","guy",1
"159","hahaha",1
"160","hahahahahaha",1
"161","happy",1
"162","havent",1
"163","head",1
"164","heavily",1
"165","held",1
"166","hell",1
"167","hold",1
"168","hours",1
"169","indian",1
"170","jeyababy",1
"171","khiang",1
"172","knw",1
"173","lack",1
"174","late",1
"175","liao",1
"176","live",1
"177","lost",1
"178","low",1
"179","luck",1
"180","main",1
"181","mall",1
"182","matter",1
"183","meh",1
"184","milk",1
"185","missing",1
"186","mulling",1
"187","name",1
"188","near",1
"189","nearly",1
"190","night",1
"191","noise",1
"192","nomination",1
"193","north",1
"194","outside",1
"195","overwhelming",1
"196","parliment",1
"197","people",1
"198","photos",1
"199","political",1
"200","poor",1
"201","proportion",1
"202","raining",1
"203","rallies",1
"204","recount",1
"205","register",1
"206","resort",1
"207","resources",1
"208","rift",1
"209","school",1
"210","searching",1
"211","seat",1
"212","secondary",1
"213","secretary",1
"214","seen",1
"215","seriously",1
"216","serve",1
"217","smiles",1
"218","speaker",1
"219","speakers",1
"220","sph",1
"221","streaming",1
"222","strongly",1
"223","takes",1
"224","talking",1
"225","temporary",1
"226","thia",1
"227","threatening",1
"228","tonights",1
"229","transport",1
"230","treat",1
"231","unemployment",1
"232","unhappiness",1
"233","upgrading",1
"234","vista",1
"235","votepap",1
"236","voters",1
"237","wait",1
"238","walau",1
"239","walks",1
"240","waste",1
"241","watch",1
"242","welcome",1
"243","weneedzombiesinparliment",1
"244","wishing",1
"245","workers",1
"246","wtfisms",1
"247","yeah",1
"248","zombie",1
